python matvec.py
------------------------------------------------------------
n:  128 | GFLOPs:  15.07 |  18.1 %
n:  128 | GFLOPs:  15.02 |  18.1 %
n:  128 | GFLOPs:  11.85 |  14.2 %
n:  128 | GFLOPs:  11.90 |  14.3 %
n:  128 | GFLOPs:  11.82 |  14.2 %
------------------------------ 0 ------------------------------
n:    1 | GFLOPs:   0.36 |  0.4 %
n:    2 | GFLOPs:   1.64 |  2.0 %
n:    3 | GFLOPs:   2.79 |  3.4 %
n:    4 | GFLOPs:   3.63 |  4.4 %
n:    5 | GFLOPs:   4.24 |  5.1 %
n:    6 | GFLOPs:   4.71 |  5.7 %
n:    7 | GFLOPs:   5.07 |  6.1 %
n:    8 | GFLOPs:  10.85 |  13.0 %
n:    9 | GFLOPs:   9.90 |  11.9 %
n:   10 | GFLOPs:   9.89 |  11.9 %
n:   11 | GFLOPs:   9.27 |  11.1 %
n:   12 | GFLOPs:   8.84 |  10.6 %
n:   13 | GFLOPs:   8.54 |  10.3 %
n:   14 | GFLOPs:   8.27 |  9.9 %
n:   15 | GFLOPs:   8.14 |  9.8 %
n:   16 | GFLOPs:  15.31 |  18.4 %
n:   17 | GFLOPs:  13.69 |  16.5 %
n:   18 | GFLOPs:  12.83 |  15.4 %
n:   19 | GFLOPs:  12.24 |  14.7 %
n:   20 | GFLOPs:  10.99 |  13.2 %
n:   21 | GFLOPs:  10.81 |  13.0 %
n:   22 | GFLOPs:   9.70 |  11.7 %
n:   23 | GFLOPs:   9.56 |  11.5 %
n:   24 | GFLOPs:  17.00 |  20.4 %
n:   25 | GFLOPs:  15.09 |  18.1 %
n:   26 | GFLOPs:  14.13 |  17.0 %
n:   27 | GFLOPs:  13.15 |  15.8 %
n:   28 | GFLOPs:  12.20 |  14.7 %
n:   29 | GFLOPs:  11.72 |  14.1 %
------------------------------ 1 12.102621745519835 ------------------------------
n:    1 | GFLOPs:   0.48 |  0.6 %
n:    2 | GFLOPs:   1.74 |  2.1 %
n:    3 | GFLOPs:   2.79 |  3.4 %
n:    4 | GFLOPs:   3.68 |  4.4 %
n:    5 | GFLOPs:   4.30 |  5.2 %
n:    6 | GFLOPs:   4.77 |  5.7 %
n:    7 | GFLOPs:   5.09 |  6.1 %
n:    8 | GFLOPs:  16.94 |  20.4 %
n:    9 | GFLOPs:   9.93 |  11.9 %
n:   10 | GFLOPs:   9.63 |  11.6 %
n:   11 | GFLOPs:   9.30 |  11.2 %
n:   12 | GFLOPs:   8.79 |  10.6 %
n:   13 | GFLOPs:   8.61 |  10.3 %
n:   14 | GFLOPs:   8.28 |  10.0 %
n:   15 | GFLOPs:   8.12 |  9.8 %
n:   16 | GFLOPs:  15.68 |  18.8 %
n:   17 | GFLOPs:  13.60 |  16.3 %
n:   18 | GFLOPs:  12.83 |  15.4 %
n:   19 | GFLOPs:  12.23 |  14.7 %
n:   20 | GFLOPs:  10.99 |  13.2 %
n:   21 | GFLOPs:  10.79 |  13.0 %
n:   22 | GFLOPs:   9.91 |  11.9 %
n:   23 | GFLOPs:   9.57 |  11.5 %
n:   24 | GFLOPs:  16.99 |  20.4 %
n:   25 | GFLOPs:  15.07 |  18.1 %
n:   26 | GFLOPs:  14.11 |  17.0 %
n:   27 | GFLOPs:  13.16 |  15.8 %
n:   28 | GFLOPs:  12.21 |  14.7 %
n:   29 | GFLOPs:  11.66 |  14.0 %
------------------------------ 2 12.157373204660122 ------------------------------
n:    1 | GFLOPs:   0.74 |  0.9 %
n:    2 | GFLOPs:   1.96 |  2.4 %
n:    3 | GFLOPs:   2.90 |  3.5 %
n:    4 | GFLOPs:   3.83 |  4.6 %
n:    5 | GFLOPs:   4.10 |  4.9 %
n:    6 | GFLOPs:   4.79 |  5.8 %
n:    7 | GFLOPs:   5.05 |  6.1 %
n:    8 | GFLOPs:   5.25 |  6.3 %
n:    9 | GFLOPs:   6.17 |  7.4 %
n:   10 | GFLOPs:   8.04 |  9.7 %
n:   11 | GFLOPs:   7.96 |  9.6 %
n:   12 | GFLOPs:   7.76 |  9.3 %
n:   13 | GFLOPs:   7.34 |  8.8 %
n:   14 | GFLOPs:   7.33 |  8.8 %
n:   15 | GFLOPs:   6.80 |  8.2 %
n:   16 | GFLOPs:  17.07 |  20.5 %
n:   17 | GFLOPs:   9.13 |  11.0 %
n:   18 | GFLOPs:  13.45 |  16.2 %
n:   19 | GFLOPs:  11.11 |  13.4 %
n:   20 | GFLOPs:  10.66 |  12.8 %
n:   21 | GFLOPs:  10.02 |  12.0 %
n:   22 | GFLOPs:   9.31 |  11.2 %
n:   23 | GFLOPs:   9.48 |  11.4 %
n:   24 | GFLOPs:  20.28 |  24.4 %
n:   25 | GFLOPs:  10.97 |  13.2 %
n:   26 | GFLOPs:  15.65 |  18.8 %
n:   27 | GFLOPs:  11.48 |  13.8 %
n:   28 | GFLOPs:  12.93 |  15.5 %
n:   29 | GFLOPs:  11.81 |  14.2 %
------------------------------ 3 11.653470253104501 ------------------------------
n:    1 | GFLOPs:   0.72 |  0.9 %
n:    2 | GFLOPs:   1.99 |  2.4 %
n:    3 | GFLOPs:   2.97 |  3.6 %
n:    4 | GFLOPs:   3.81 |  4.6 %
n:    5 | GFLOPs:   4.16 |  5.0 %
n:    6 | GFLOPs:   4.77 |  5.7 %
n:    7 | GFLOPs:   4.96 |  6.0 %
n:    8 | GFLOPs:  17.99 |  21.6 %
n:    9 | GFLOPs:  13.42 |  16.1 %
n:   10 | GFLOPs:  13.53 |  16.3 %
n:   11 | GFLOPs:  12.81 |  15.4 %
n:   12 | GFLOPs:  17.16 |  20.6 %
n:   13 | GFLOPs:   5.89 |  7.1 %
n:   14 | GFLOPs:   6.51 |  7.8 %
n:   15 | GFLOPs:   6.78 |  8.2 %
n:   16 | GFLOPs:  27.82 |  33.4 %
n:   17 | GFLOPs:  21.01 |  25.2 %
n:   18 | GFLOPs:  24.14 |  29.0 %
n:   19 | GFLOPs:  21.02 |  25.3 %
n:   20 | GFLOPs:  19.05 |  22.9 %
n:   21 | GFLOPs:  22.04 |  26.5 %
n:   22 | GFLOPs:  18.38 |  22.1 %
n:   23 | GFLOPs:  16.89 |  20.3 %
n:   24 | GFLOPs:  37.70 |  45.3 %
n:   25 | GFLOPs:  26.93 |  32.4 %
n:   26 | GFLOPs:  27.98 |  33.6 %
n:   27 | GFLOPs:  22.41 |  26.9 %
n:   28 | GFLOPs:  21.85 |  26.3 %
n:   29 | GFLOPs:  20.84 |  25.0 %
------------------------------ 4 21.536620370268224 ------------------------------
n:    1 | GFLOPs:   0.72 |  0.9 %
n:    2 | GFLOPs:   1.99 |  2.4 %
n:    3 | GFLOPs:   2.97 |  3.6 %
n:    4 | GFLOPs:   3.81 |  4.6 %
n:    5 | GFLOPs:   4.13 |  5.0 %
n:    6 | GFLOPs:   4.76 |  5.7 %
n:    7 | GFLOPs:   4.99 |  6.0 %
n:    8 | GFLOPs:  17.46 |  21.0 %
n:    9 | GFLOPs:  19.75 |  23.7 %
n:   10 | GFLOPs:  19.71 |  23.7 %
n:   11 | GFLOPs:  17.44 |  21.0 %
n:   12 | GFLOPs:  14.58 |  17.5 %
n:   13 | GFLOPs:  31.79 |  38.2 %
n:   14 | GFLOPs:  35.67 |  42.9 %
n:   15 | GFLOPs:  34.41 |  41.4 %
n:   16 | GFLOPs:  22.05 |  26.5 %
n:   17 | GFLOPs:  14.43 |  17.3 %
n:   18 | GFLOPs:  14.77 |  17.7 %
n:   19 | GFLOPs:  14.24 |  17.1 %
n:   20 | GFLOPs:  13.54 |  16.3 %
n:   21 | GFLOPs:  15.17 |  18.2 %
n:   22 | GFLOPs:  15.99 |  19.2 %
n:   23 | GFLOPs:  16.70 |  20.1 %
n:   24 | GFLOPs:  17.56 |  21.1 %
n:   25 | GFLOPs:  16.41 |  19.7 %
n:   26 | GFLOPs:  15.68 |  18.8 %
n:   27 | GFLOPs:  14.92 |  17.9 %
n:   28 | GFLOPs:  14.33 |  17.2 %
n:   29 | GFLOPs:  16.19 |  19.5 %
------------------------------ 5 16.917659392876793 ------------------------------

